<?xml version="1.0" encoding="UTF-8"?>
<svg width="968px" height="70px" viewBox="0 0 968 70" version="1.1" xmlns="http://www.w3.org/2000/svg" xmlns:xlink="http://www.w3.org/1999/xlink">
    <!-- Generator: Sketch 43.1 (39012) - http://www.bohemiancoding.com/sketch -->
    <title>Asset 1</title>
    <desc>Created with Sketch.</desc>
    <defs></defs>
    <g id="Page-2" stroke="none" stroke-width="1" fill="none" fill-rule="evenodd">
        <g id="Desktop" transform="translate(-367.000000, -1573.000000)" fill-rule="nonzero" fill="#434244">
            <g id="Fritas" transform="translate(340.000000, 1536.000000)">
                <g id="Asset-1" transform="translate(27.000000, 37.000000)">
                    <path d="M966.042714,38.9830986 C965.603512,36.8898339 965.563916,34.6431063 965.928732,32.515493 L965.928732,27.5070423 C965.894849,25.5242815 966.257769,23.5741731 966.967237,21.9267606 C966.975601,19.4674866 967.23202,17.0255202 967.727119,14.6901408 L967.727119,1.63661972 C967.613137,1.45915493 967.499154,1.26197183 967.372507,1.10422535 C965.599449,-1.06478873 958.963147,0.847887324 956.607512,1.10422535 C952.466155,1.73521127 888.324798,2.66197183 884.158112,2.81971831 C882.409942,3.03282783 880.694566,1.99500742 879.497502,0 L399.722321,0 C385.588515,3.74647887 370.80881,1.22253521 356.66234,0.532394366 C349.646096,0.197183099 342.718505,0 335.77825,0 L326.203736,0 C318.148987,0.0788732394 310.085795,0.308920188 302.014159,0.690140845 C284.283579,1.53802817 166.211052,2.8 148.505801,0.690140845 C143.193195,1.98138649 138.524992,2.13447047 133.928732,1.14366197 C132.446962,0.788732394 131.003186,0.394366197 129.55941,0 L11.8288299,2.29096867e-14 C8.79402021,0.880318558 5.82391694,2.23457886 2.96353982,4.04225352 L2.46961652,4.31830986 C1.66751885,8.86666667 0.992068174,13.4478873 0.443264503,18.0619718 C0.443264503,24.4112676 0.291288102,30.7605634 0.113982301,37.0901408 C0.113982301,38.5295775 0.113982301,32.0816901 0.113982301,33.5408451 C0.130256219,33.9940123 0.130256219,34.4482412 0.113982301,34.9014085 L0.113982301,61.7774648 C1.38045231,63.5915493 2.54560472,65.3661972 3.85006883,67.0225352 C4.38566255,67.8013218 4.80128601,68.7584981 5.06588004,69.8225352 L605.753274,69.8225352 C615.733058,66.0957746 676.422065,67.4957746 686.553825,68.5408451 L693.481416,69.2507042 C699.357837,69.0338028 705.234258,69.1126761 711.098014,69.5661972 C730.829617,68.5605634 854.497384,65.8 873.469105,69.8028169 L965.029538,69.8028169 C965.029538,59.7070423 964.801573,49.2957746 965.865408,39.3774648 C965.954061,38.5887324 966.068043,37.7802817 966.169361,36.9915493 C966.169361,35.0394366 966.093373,40.9549296 966.042714,38.9830986 Z" id="Shape"></path>
                </g>
            </g>
        </g>
    </g>
</svg>